7 16688
7 33072
11 16688
11 33072
13 2
14 1
52 13824
52 14848
52 15360
56 13824
56 14848
56 15360
67 128
67 49152
131 64
131 8448
140 3600
140 3616
193 5644
193 6668
193 7180
194 5644
194 6668
194 7180
193 49164
194 49164
193 50696
193 51720
193 52232
194 50696
194 51720
194 52232
200 50691
200 51715
200 52227
208 32
224 16
515 3120
1027 2608
2051 1584
524 3264
1036 2752
2060 1728
704 56324
1216 55812
2240 54788
704 60420
1216 59908
2240 58884
1792 0
2816 0
3328 0
3584 0
4099 316
4108 448
4288 57600
8204 448
8384 53504
12292 8
12296 4
12296 256
12304 3776
12320 3776
12304 16483
12304 32867
12320 16467
12320 32851
12352 16435
12352 32819
12800 3203
13312 2691
14336 1667
12800 49219
13312 49219
14336 49219
16432 256
32816 256
16432 32768
32816 16384
49153 30
49153 46
49154 29
49154 45
49156 4552
49160 4548
49168 8640
49184 8640
53248 204
53248 1536
53248 2560
53248 3072
53248 8193
53248 8194
57344 1536
57344 2560
57344 3072
57344 4097
57344 4098
57344 4144
