59 4
61 2
62 1
91 4
93 2
94 1
107 4
109 2
110 1
115 4
117 2
118 1
155 4
157 2
158 1
171 4
173 2
174 1
179 4
181 2
182 1
203 4
205 2
206 1
211 4
213 2
214 1
227 4
229 2
230 1
121 134
122 133
124 131
185 70
186 69
188 67
217 38
218 37
220 35
233 22
234 21
236 19
241 14
242 13
244 11
121 262
121 518
122 261
122 517
124 259
124 515
185 262
185 518
186 261
186 517
188 259
188 515
217 262
217 518
218 261
218 517
220 259
220 515
233 262
233 518
234 261
234 517
236 259
236 515
241 262
241 518
242 261
242 517
244 259
244 515
121 1158
121 2182
122 1157
122 2181
124 1155
124 2179
185 1094
185 2118
186 1093
186 2117
188 1091
188 2115
217 1062
217 2086
218 1061
218 2085
220 1059
220 2083
233 1046
233 2070
234 1045
234 2069
236 1043
236 2067
241 1038
241 2062
242 1037
242 2061
244 1035
244 2059
121 4102
122 4101
124 4099
185 4102
186 4101
188 4099
217 4102
218 4101
220 4099
233 4102
234 4101
236 4099
241 4102
242 4101
244 4099
121 24706
121 24708
122 24705
122 24708
124 24705
124 24706
185 24642
185 24644
186 24641
186 24644
188 24641
188 24642
217 24610
217 24612
218 24609
218 24612
220 24609
220 24610
233 24594
233 24596
234 24593
234 24596
236 24593
236 24594
241 24586
241 24588
242 24585
242 24588
244 24585
244 24586
121 32770
121 32772
122 32769
122 32772
124 32769
124 32770
185 32770
185 32772
186 32769
186 32772
188 32769
188 32770
217 32770
217 32772
218 32769
218 32772
220 32769
220 32770
233 32770
233 32772
234 32769
234 32772
236 32769
236 32770
241 32770
241 32772
242 32769
242 32772
244 32769
244 32770
121 57350
122 57349
124 57347
185 57350
186 57349
188 57347
217 57350
218 57349
220 57347
233 57350
234 57349
236 57347
241 57350
242 57349
244 57347
248 1
248 2
248 4
248 768
248 1024
248 2048
248 1280
248 1536
248 2304
248 2560
248 3072
248 3073
248 3074
248 3076
248 3328
248 3584
248 4096
248 4352
248 4608
248 5376
248 5632
248 6400
248 6656
248 8192
248 16384
248 32768
248 40960
271 4336
279 4328
295 4312
327 4280
391 4216
527 4336
535 4328
551 4312
583 4280
647 4216
271 8944
279 8936
295 8920
327 8888
391 8824
527 8688
535 8680
551 8664
583 8632
647 8568
376 15872
440 15872
472 15872
488 15872
496 15872
632 15616
696 15616
728 15616
744 15616
752 15616
376 16000
440 15936
472 15904
488 15888
496 15880
632 15744
696 15680
728 15648
744 15632
752 15624
376 24064
440 24064
472 24064
488 24064
496 24064
632 23808
696 23808
728 23808
744 23808
752 23808
376 24192
440 24128
472 24096
488 24080
496 24072
632 23936
696 23872
728 23840
744 23824
752 23816
376 28160
440 28160
472 28160
488 28160
496 28160
632 27904
696 27904
728 27904
744 27904
752 27904
376 28288
440 28224
472 28192
488 28176
496 28168
632 28032
696 27968
728 27936
744 27920
752 27912
376 40448
440 40448
472 40448
488 40448
496 40448
632 40192
696 40192
728 40192
744 40192
752 40192
376 40576
440 40512
472 40480
488 40464
496 40456
632 40320
696 40256
728 40224
744 40208
752 40200
376 44672
440 44608
472 44576
488 44560
496 44552
632 44416
696 44352
728 44320
744 44304
752 44296
376 46720
376 47744
440 46656
440 47680
472 46624
472 47648
488 46608
488 47632
496 46600
496 47624
632 46464
632 47488
696 46400
696 47424
728 46368
728 47392
744 46352
744 47376
752 46344
752 47368
376 52736
440 52736
472 52736
488 52736
496 52736
632 52480
696 52480
728 52480
744 52480
752 52480
376 54784
376 55808
440 54784
440 55808
472 54784
472 55808
488 54784
488 55808
496 54784
496 55808
632 54528
632 55552
696 54528
696 55552
728 54528
728 55552
744 54528
744 55552
752 54528
752 55552
376 54912
376 55936
440 54848
440 55872
472 54816
472 55840
488 54800
488 55824
496 54792
496 55816
632 54656
632 55680
696 54592
696 55616
728 54560
728 55584
744 54544
744 55568
752 54536
752 55560
376 58880
376 59904
440 58880
440 59904
472 58880
472 59904
488 58880
488 59904
496 58880
496 59904
632 58624
632 59648
696 58624
696 59648
728 58624
728 59648
744 58624
744 59648
752 58624
752 59648
376 59008
376 60032
440 58944
440 59968
472 58912
472 59936
488 58896
488 59920
496 58888
496 59912
632 58752
632 59776
696 58688
696 59712
728 58656
728 59680
744 58640
744 59664
752 58632
752 59656
376 61952
440 61952
472 61952
488 61952
496 61952
632 61696
696 61696
728 61696
744 61696
752 61696
376 62080
440 62016
472 61984
488 61968
496 61960
632 61824
696 61760
728 61728
744 61712
752 61704
775 8192
775 32768
824 1223
824 2247
856 1191
856 2215
872 1175
872 2199
880 1167
880 2191
920 1127
920 2151
936 1111
936 2135
944 1103
944 2127
968 1079
968 2103
976 1071
976 2095
992 1055
992 2079
824 8391
856 8359
872 8343
880 8335
920 8295
936 8279
944 8271
968 8247
976 8239
992 8223
824 32967
856 32935
872 32919
880 32911
920 32871
936 32855
944 32847
968 32823
976 32815
992 32799
1336 199
1368 167
1384 151
1392 143
1432 103
1448 87
1456 79
1480 55
1488 47
1504 31
1592 199
1624 167
1640 151
1648 143
1688 103
1704 87
1712 79
1736 55
1744 47
1760 31
2360 199
2392 167
2408 151
2416 143
2456 103
2472 87
2480 79
2504 55
2512 47
2528 31
2616 199
2648 167
2664 151
2672 143
2712 103
2728 87
2736 79
2760 55
2768 47
2784 31
1336 711
1368 679
1384 663
1392 655
1432 615
1448 599
1456 591
1480 567
1488 559
1504 543
1592 455
1624 423
1640 407
1648 399
1688 359
1704 343
1712 335
1736 311
1744 303
1760 287
2360 711
2392 679
2408 663
2416 655
2456 615
2472 599
2480 591
2504 567
2512 559
2528 543
2616 455
2648 423
2664 407
2672 399
2712 359
2728 343
2736 335
2760 311
2768 303
2784 287
1336 2247
1368 2215
1384 2199
1392 2191
1432 2151
1448 2135
1456 2127
1480 2103
1488 2095
1504 2079
1592 2247
1624 2215
1640 2199
1648 2191
1688 2151
1704 2135
1712 2127
1736 2103
1744 2095
1760 2079
2360 1223
2392 1191
2408 1175
2416 1167
2456 1127
2472 1111
2480 1103
2504 1079
2512 1071
2528 1055
2616 1223
2648 1191
2664 1175
2672 1167
2712 1127
2728 1111
2736 1103
2760 1079
2768 1071
2784 1055
1336 32967
1368 32935
1384 32919
1392 32911
1432 32871
1448 32855
1456 32847
1480 32823
1488 32815
1504 32799
1592 32967
1624 32935
1640 32919
1648 32911
1688 32871
1704 32855
1712 32847
1736 32823
1744 32815
1760 32799
2360 32967
2392 32935
2408 32919
2416 32911
2456 32871
2472 32855
2480 32847
2504 32823
2512 32815
2528 32799
2616 32967
2648 32935
2664 32919
2672 32911
2712 32871
2728 32855
2736 32847
2760 32823
2768 32815
2784 32799
3079 16640
3079 16896
3079 17152
3079 24576
3079 25344
3128 455
3128 711
3160 423
3160 679
3176 407
3176 663
3184 399
3184 655
3224 359
3224 615
3240 343
3240 599
3248 335
3248 591
3272 311
3272 567
3280 303
3280 559
3296 287
3296 543
3128 16583
3160 16551
3176 16535
3184 16527
3224 16487
3240 16471
3248 16463
3272 16439
3280 16431
3296 16415
3128 45824
3160 45824
3176 45824
3184 45824
3224 45824
3240 45824
3248 45824
3272 45824
3280 45824
3296 45824
3128 54016
3160 54016
3176 54016
3184 54016
3224 54016
3240 54016
3248 54016
3272 54016
3280 54016
3296 54016
3331 45568
3333 45568
3334 45568
3587 45312
3589 45312
3590 45312
3352 615
3352 679
3352 711
3368 599
3368 663
3368 711
3376 591
3376 655
3376 711
3400 567
3400 663
3400 679
3408 559
3408 655
3408 679
3424 543
3424 655
3424 663
3464 567
3464 599
3464 615
3472 559
3472 591
3472 615
3488 543
3488 591
3488 599
3520 543
3520 559
3520 567
3608 359
3608 423
3608 455
3624 343
3624 407
3624 455
3632 335
3632 399
3632 455
3656 311
3656 407
3656 423
3664 303
3664 399
3664 423
3680 287
3680 399
3680 407
3720 311
3720 343
3720 359
3728 303
3728 335
3728 359
3744 287
3744 335
3744 343
3776 287
3776 303
3776 311
3352 16487
3352 16551
3352 16583
3368 16471
3368 16535
3368 16583
3376 16463
3376 16527
3376 16583
3400 16439
3400 16535
3400 16551
3408 16431
3408 16527
3408 16551
3424 16415
3424 16527
3424 16535
3464 16439
3464 16471
3464 16487
3472 16431
3472 16463
3472 16487
3488 16415
3488 16463
3488 16471
3520 16415
3520 16431
3520 16439
3608 16487
3608 16551
3608 16583
3624 16471
3624 16535
3624 16583
3632 16463
3632 16527
3632 16583
3656 16439
3656 16535
3656 16551
3664 16431
3664 16527
3664 16551
3680 16415
3680 16527
3680 16535
3720 16439
3720 16471
3720 16487
3728 16431
3728 16463
3728 16487
3744 16415
3744 16463
3744 16471
3776 16415
3776 16431
3776 16439
4408 199
4440 167
4456 151
4464 143
4504 103
4520 87
4528 79
4552 55
4560 47
4576 31
4664 199
4696 167
4712 151
4720 143
4760 103
4776 87
4784 79
4808 55
4816 47
4832 31
4408 711
4440 679
4456 663
4464 655
4504 615
4520 599
4528 591
4552 567
4560 559
4576 543
4664 455
4696 423
4712 407
4720 399
4760 359
4776 343
4784 335
4808 311
4816 303
4832 287
4408 1223
4408 2247
4440 1191
4440 2215
4456 1175
4456 2199
4464 1167
4464 2191
4504 1127
4504 2151
4520 1111
4520 2135
4528 1103
4528 2127
4552 1079
4552 2103
4560 1071
4560 2095
4576 1055
4576 2079
4664 1223
4664 2247
4696 1191
4696 2215
4712 1175
4712 2199
4720 1167
4720 2191
4760 1127
4760 2151
4776 1111
4776 2135
4784 1103
4784 2127
4808 1079
4808 2103
4816 1071
4816 2095
4832 1055
4832 2079
4408 8391
4440 8359
4456 8343
4464 8335
4504 8295
4520 8279
4528 8271
4552 8247
4560 8239
4576 8223
4664 8391
4696 8359
4712 8343
4720 8335
4760 8295
4776 8279
4784 8271
4808 8247
4816 8239
4832 8223
4408 16583
4440 16551
4456 16535
4464 16527
4504 16487
4520 16471
4528 16463
4552 16439
4560 16431
4576 16415
4664 16583
4696 16551
4712 16535
4720 16527
4760 16487
4776 16471
4784 16463
4808 16439
4816 16431
4832 16415
4408 32967
4440 32935
4456 32919
4464 32911
4504 32871
4520 32855
4528 32847
4552 32823
4560 32815
4576 32799
4664 32967
4696 32935
4712 32919
4720 32911
4760 32871
4776 32855
4784 32847
4808 32823
4816 32815
4832 32799
4888 103
4888 167
4888 199
4904 87
4904 151
4904 199
4912 79
4912 143
4912 199
4936 55
4936 151
4936 167
4944 47
4944 143
4944 167
4960 31
4960 143
4960 151
5000 55
5000 87
5000 103
5008 47
5008 79
5008 103
5024 31
5024 79
5024 87
5056 31
5056 47
5056 55
4888 16487
4888 16551
4888 16583
4904 16471
4904 16535
4904 16583
4912 16463
4912 16527
4912 16583
4936 16439
4936 16535
4936 16551
4944 16431
4944 16527
4944 16551
4960 16415
4960 16527
4960 16535
5000 16439
5000 16471
5000 16487
5008 16431
5008 16463
5008 16487
5024 16415
5024 16463
5024 16471
5056 16415
5056 16431
5056 16439
5176 199
5208 167
5224 151
5232 143
5272 103
5288 87
5296 79
5320 55
5328 47
5344 31
6200 199
6232 167
6248 151
6256 143
6296 103
6312 87
6320 79
6344 55
6352 47
6368 31
5176 455
5176 711
5208 423
5208 679
5224 407
5224 663
5232 399
5232 655
5272 359
5272 615
5288 343
5288 599
5296 335
5296 591
5320 311
5320 567
5328 303
5328 559
5344 287
5344 543
6200 455
6200 711
6232 423
6232 679
6248 407
6248 663
6256 399
6256 655
6296 359
6296 615
6312 343
6312 599
6320 335
6320 591
6344 311
6344 567
6352 303
6352 559
6368 287
6368 543
5176 2247
5208 2215
5224 2199
5232 2191
5272 2151
5288 2135
5296 2127
5320 2103
5328 2095
5344 2079
6200 1223
6232 1191
6248 1175
6256 1167
6296 1127
6312 1111
6320 1103
6344 1079
6352 1071
6368 1055
5176 27456
5176 27520
5208 27424
5208 27520
5224 27408
5224 27520
5232 27400
5232 27520
5272 27424
5272 27456
5288 27408
5288 27456
5296 27400
5296 27456
5320 27408
5320 27424
5328 27400
5328 27424
5344 27400
5344 27408
6200 26432
6200 26496
6232 26400
6232 26496
6248 26384
6248 26496
6256 26376
6256 26496
6296 26400
6296 26432
6312 26384
6312 26432
6320 26376
6320 26432
6344 26384
6344 26400
6352 26376
6352 26400
6368 26376
6368 26384
5176 32967
5208 32935
5224 32919
5232 32911
5272 32871
5288 32855
5296 32847
5320 32823
5328 32815
5344 32799
6200 32967
6232 32935
6248 32919
6256 32911
6296 32871
6312 32855
6320 32847
6344 32823
6352 32815
6368 32799
5176 58112
5208 58112
5224 58112
5232 58112
5272 58112
5288 58112
5296 58112
5320 58112
5328 58112
5344 58112
6200 58112
6232 58112
6248 58112
6256 58112
6296 58112
6312 58112
6320 58112
6344 58112
6352 58112
6368 58112
5176 58176
5176 58240
5208 58144
5208 58240
5224 58128
5224 58240
5232 58120
5232 58240
5272 58144
5272 58176
5288 58128
5288 58176
5296 58120
5296 58176
5320 58128
5320 58144
5328 58120
5328 58144
5344 58120
5344 58128
6200 58176
6200 58240
6232 58144
6232 58240
6248 58128
6248 58240
6256 58120
6256 58240
6296 58144
6296 58176
6312 58128
6312 58176
6320 58120
6320 58176
6344 58128
6344 58144
6352 58120
6352 58144
6368 58120
6368 58128
5176 59712
5176 59776
5176 59968
5176 60032
5208 59680
5208 59776
5208 59936
5208 60032
5224 59664
5224 59776
5224 59920
5224 60032
5232 59656
5232 59776
5232 59912
5232 60032
5272 59680
5272 59712
5272 59936
5272 59968
5288 59664
5288 59712
5288 59920
5288 59968
5296 59656
5296 59712
5296 59912
5296 59968
5320 59664
5320 59680
5320 59920
5320 59936
5328 59656
5328 59680
5328 59912
5328 59936
5344 59656
5344 59664
5344 59912
5344 59920
6200 58688
6200 58752
6200 58944
6200 59008
6232 58656
6232 58752
6232 58912
6232 59008
6248 58640
6248 58752
6248 58896
6248 59008
6256 58632
6256 58752
6256 58888
6256 59008
6296 58656
6296 58688
6296 58912
6296 58944
6312 58640
6312 58688
6312 58896
6312 58944
6320 58632
6320 58688
6320 58888
6320 58944
6344 58640
6344 58656
6344 58896
6344 58912
6352 58632
6352 58656
6352 58888
6352 58912
6368 58632
6368 58640
6368 58888
6368 58896
5400 103
5400 167
5400 199
5416 87
5416 151
5416 199
5424 79
5424 143
5424 199
5448 55
5448 151
5448 167
5456 47
5456 143
5456 167
5472 31
5472 143
5472 151
5512 55
5512 87
5512 103
5520 47
5520 79
5520 103
5536 31
5536 79
5536 87
5568 31
5568 47
5568 55
5656 103
5656 167
5656 199
5672 87
5672 151
5672 199
5680 79
5680 143
5680 199
5704 55
5704 151
5704 167
5712 47
5712 143
5712 167
5728 31
5728 143
5728 151
5768 55
5768 87
5768 103
5776 47
5776 79
5776 103
5792 31
5792 79
5792 87
5824 31
5824 47
5824 55
6424 103
6424 167
6424 199
6440 87
6440 151
6440 199
6448 79
6448 143
6448 199
6472 55
6472 151
6472 167
6480 47
6480 143
6480 167
6496 31
6496 143
6496 151
6536 55
6536 87
6536 103
6544 47
6544 79
6544 103
6560 31
6560 79
6560 87
6592 31
6592 47
6592 55
6680 103
6680 167
6680 199
6696 87
6696 151
6696 199
6704 79
6704 143
6704 199
6728 55
6728 151
6728 167
6736 47
6736 143
6736 167
6752 31
6752 143
6752 151
6792 55
6792 87
6792 103
6800 47
6800 79
6800 103
6816 31
6816 79
6816 87
6848 31
6848 47
6848 55
5400 615
5400 679
5400 711
5416 599
5416 663
5416 711
5424 591
5424 655
5424 711
5448 567
5448 663
5448 679
5456 559
5456 655
5456 679
5472 543
5472 655
5472 663
5512 567
5512 599
5512 615
5520 559
5520 591
5520 615
5536 543
5536 591
5536 599
5568 543
5568 559
5568 567
5656 359
5656 423
5656 455
5672 343
5672 407
5672 455
5680 335
5680 399
5680 455
5704 311
5704 407
5704 423
5712 303
5712 399
5712 423
5728 287
5728 399
5728 407
5768 311
5768 343
5768 359
5776 303
5776 335
5776 359
5792 287
5792 335
5792 343
5824 287
5824 303
5824 311
6424 615
6424 679
6424 711
6440 599
6440 663
6440 711
6448 591
6448 655
6448 711
6472 567
6472 663
6472 679
6480 559
6480 655
6480 679
6496 543
6496 655
6496 663
6536 567
6536 599
6536 615
6544 559
6544 591
6544 615
6560 543
6560 591
6560 599
6592 543
6592 559
6592 567
6680 359
6680 423
6680 455
6696 343
6696 407
6696 455
6704 335
6704 399
6704 455
6728 311
6728 407
6728 423
6736 303
6736 399
6736 423
6752 287
6752 399
6752 407
6792 311
6792 343
6792 359
6800 303
6800 335
6800 359
6816 287
6816 335
6816 343
6848 287
6848 303
6848 311
7192 231
7208 215
7216 207
7240 183
7248 175
7264 159
7304 119
7312 111
7328 95
7360 63
7432 567
7432 599
7432 615
7432 663
7432 679
7432 711
7440 559
7440 591
7440 615
7440 655
7440 679
7440 711
7456 543
7456 591
7456 599
7456 655
7456 663
7456 711
7488 543
7488 559
7488 567
7488 655
7488 663
7488 679
7552 543
7552 559
7552 567
7552 591
7552 599
7552 615
7688 311
7688 343
7688 359
7688 407
7688 423
7688 455
7696 303
7696 335
7696 359
7696 399
7696 423
7696 455
7712 287
7712 335
7712 343
7712 399
7712 407
7712 455
7744 287
7744 303
7744 311
7744 399
7744 407
7744 423
7808 287
7808 303
7808 311
7808 335
7808 343
7808 359
7936 24579
7936 24581
7936 24582
7936 24583
7936 24633
7936 24634
7936 24636
7936 24665
7936 24666
7936 24668
7936 24681
7936 24682
7936 24684
7936 24689
7936 24690
7936 24692
7936 24729
7936 24730
7936 24732
7936 24745
7936 24746
7936 24748
7936 24753
7936 24754
7936 24756
7936 24777
7936 24778
7936 24780
7936 24785
7936 24786
7936 24788
7936 24801
7936 24802
7936 24804
7936 40967
7936 49155
7936 49157
7936 49158
7936 49159
8207 16624
8215 16616
8231 16600
8263 16568
8327 16504
8504 199
8536 167
8552 151
8560 143
8600 103
8616 87
8624 79
8648 55
8656 47
8672 31
8760 199
8792 167
8808 151
8816 143
8856 103
8872 87
8880 79
8904 55
8912 47
8928 31
8504 711
8536 679
8552 663
8560 655
8600 615
8616 599
8624 591
8648 567
8656 559
8672 543
8760 455
8792 423
8808 407
8816 399
8856 359
8872 343
8880 335
8904 311
8912 303
8928 287
8504 1223
8504 2247
8536 1191
8536 2215
8552 1175
8552 2199
8560 1167
8560 2191
8600 1127
8600 2151
8616 1111
8616 2135
8624 1103
8624 2127
8648 1079
8648 2103
8656 1071
8656 2095
8672 1055
8672 2079
8760 1223
8760 2247
8792 1191
8792 2215
8808 1175
8808 2199
8816 1167
8816 2191
8856 1127
8856 2151
8872 1111
8872 2135
8880 1103
8880 2127
8904 1079
8904 2103
8912 1071
8912 2095
8928 1055
8928 2079
8504 16583
8536 16551
8552 16535
8560 16527
8600 16487
8616 16471
8624 16463
8648 16439
8656 16431
8672 16415
8760 16583
8792 16551
8808 16535
8816 16527
8856 16487
8872 16471
8880 16463
8904 16439
8912 16431
8928 16415
8504 32967
8536 32935
8552 32919
8560 32911
8600 32871
8616 32855
8624 32847
8648 32823
8656 32815
8672 32799
8760 32967
8792 32935
8808 32919
8816 32911
8856 32871
8872 32855
8880 32847
8904 32823
8912 32815
8928 32799
9272 199
9304 167
9320 151
9328 143
9368 103
9384 87
9392 79
9416 55
9424 47
9440 31
10296 199
10328 167
10344 151
10352 143
10392 103
10408 87
10416 79
10440 55
10448 47
10464 31
9272 455
9272 711
9304 423
9304 679
9320 407
9320 663
9328 399
9328 655
9368 359
9368 615
9384 343
9384 599
9392 335
9392 591
9416 311
9416 567
9424 303
9424 559
9440 287
9440 543
10296 455
10296 711
10328 423
10328 679
10344 407
10344 663
10352 399
10352 655
10392 359
10392 615
10408 343
10408 599
10416 335
10416 591
10440 311
10440 567
10448 303
10448 559
10464 287
10464 543
9272 2247
9304 2215
9320 2199
9328 2191
9368 2151
9384 2135
9392 2127
9416 2103
9424 2095
9440 2079
10296 1223
10328 1191
10344 1175
10352 1167
10392 1127
10408 1111
10416 1103
10440 1079
10448 1071
10464 1055
9272 23360
9272 23424
9304 23328
9304 23424
9320 23312
9320 23424
9328 23304
9328 23424
9368 23328
9368 23360
9384 23312
9384 23360
9392 23304
9392 23360
9416 23312
9416 23328
9424 23304
9424 23328
9440 23304
9440 23312
10296 22336
10296 22400
10328 22304
10328 22400
10344 22288
10344 22400
10352 22280
10352 22400
10392 22304
10392 22336
10408 22288
10408 22336
10416 22280
10416 22336
10440 22288
10440 22304
10448 22280
10448 22304
10464 22280
10464 22288
9272 32967
9304 32935
9320 32919
9328 32911
9368 32871
9384 32855
9392 32847
9416 32823
9424 32815
9440 32799
10296 32967
10328 32935
10344 32919
10352 32911
10392 32871
10408 32855
10416 32847
10440 32823
10448 32815
10464 32799
9272 55616
9272 55680
9272 55872
9272 55936
9304 55584
9304 55680
9304 55840
9304 55936
9320 55568
9320 55680
9320 55824
9320 55936
9328 55560
9328 55680
9328 55816
9328 55936
9368 55584
9368 55616
9368 55840
9368 55872
9384 55568
9384 55616
9384 55824
9384 55872
9392 55560
9392 55616
9392 55816
9392 55872
9416 55568
9416 55584
9416 55824
9416 55840
9424 55560
9424 55584
9424 55816
9424 55840
9440 55560
9440 55568
9440 55816
9440 55824
10296 54592
10296 54656
10296 54848
10296 54912
10328 54560
10328 54656
10328 54816
10328 54912
10344 54544
10344 54656
10344 54800
10344 54912
10352 54536
10352 54656
10352 54792
10352 54912
10392 54560
10392 54592
10392 54816
10392 54848
10408 54544
10408 54592
10408 54800
10408 54848
10416 54536
10416 54592
10416 54792
10416 54848
10440 54544
10440 54560
10440 54800
10440 54816
10448 54536
10448 54560
10448 54792
10448 54816
10464 54536
10464 54544
10464 54792
10464 54800
9496 32871
9496 32935
9496 32967
9512 32855
9512 32919
9512 32967
9520 32847
9520 32911
9520 32967
9544 32823
9544 32919
9544 32935
9552 32815
9552 32911
9552 32935
9568 32799
9568 32911
9568 32919
9608 32823
9608 32855
9608 32871
9616 32815
9616 32847
9616 32871
9632 32799
9632 32847
9632 32855
9664 32799
9664 32815
9664 32823
9752 32871
9752 32935
9752 32967
9768 32855
9768 32919
9768 32967
9776 32847
9776 32911
9776 32967
9800 32823
9800 32919
9800 32935
9808 32815
9808 32911
9808 32935
9824 32799
9824 32911
9824 32919
9864 32823
9864 32855
9864 32871
9872 32815
9872 32847
9872 32871
9888 32799
9888 32847
9888 32855
9920 32799
9920 32815
9920 32823
10520 32871
10520 32935
10520 32967
10536 32855
10536 32919
10536 32967
10544 32847
10544 32911
10544 32967
10568 32823
10568 32919
10568 32935
10576 32815
10576 32911
10576 32935
10592 32799
10592 32911
10592 32919
10632 32823
10632 32855
10632 32871
10640 32815
10640 32847
10640 32871
10656 32799
10656 32847
10656 32855
10688 32799
10688 32815
10688 32823
10776 32871
10776 32935
10776 32967
10792 32855
10792 32919
10792 32967
10800 32847
10800 32911
10800 32967
10824 32823
10824 32919
10824 32935
10832 32815
10832 32911
10832 32935
10848 32799
10848 32911
10848 32919
10888 32823
10888 32855
10888 32871
10896 32815
10896 32847
10896 32871
10912 32799
10912 32847
10912 32855
10944 32799
10944 32815
10944 32823
12032 16391
12032 20483
12032 20485
12032 20486
12032 32771
12032 32773
12032 32774
12032 32775
12032 36867
12032 36869
12032 36870
12032 36871
12032 49152
12032 53249
12032 53250
12032 53252
12295 33536
12295 33792
12295 34816
12344 199
12376 167
12392 151
12400 143
12440 103
12456 87
12464 79
12488 55
12496 47
12512 31
12344 455
12344 711
12376 423
12376 679
12392 407
12392 663
12400 399
12400 655
12440 359
12440 615
12456 343
12456 599
12464 335
12464 591
12488 311
12488 567
12496 303
12496 559
12512 287
12512 543
12344 1223
12344 2247
12376 1191
12376 2215
12392 1175
12392 2199
12400 1167
12400 2191
12440 1127
12440 2151
12456 1111
12456 2135
12464 1103
12464 2127
12488 1079
12488 2103
12496 1071
12496 2095
12512 1055
12512 2079
12344 16583
12376 16551
12392 16535
12400 16527
12440 16487
12456 16471
12464 16463
12488 16439
12496 16431
12512 16415
12344 20224
12376 20224
12392 20224
12400 20224
12440 20224
12456 20224
12464 20224
12488 20224
12496 20224
12512 20224
12344 20288
12344 20352
12376 20256
12376 20352
12392 20240
12392 20352
12400 20232
12400 20352
12440 20256
12440 20288
12456 20240
12456 20288
12464 20232
12464 20288
12488 20240
12488 20256
12496 20232
12496 20256
12512 20232
12512 20240
12344 32967
12376 32935
12392 32919
12400 32911
12440 32871
12456 32855
12464 32847
12488 32823
12496 32815
12512 32799
12344 52480
12344 52736
12376 52480
12376 52736
12392 52480
12392 52736
12400 52480
12400 52736
12440 52480
12440 52736
12456 52480
12456 52736
12464 52480
12464 52736
12488 52480
12488 52736
12496 52480
12496 52736
12512 52480
12512 52736
12344 52544
12344 52608
12344 52800
12344 52864
12376 52512
12376 52608
12376 52768
12376 52864
12392 52496
12392 52608
12392 52752
12392 52864
12400 52488
12400 52608
12400 52744
12400 52864
12440 52512
12440 52544
12440 52768
12440 52800
12456 52496
12456 52544
12456 52752
12456 52800
12464 52488
12464 52544
12464 52744
12464 52800
12488 52496
12488 52512
12488 52752
12488 52768
12496 52488
12496 52512
12496 52744
12496 52768
12512 52488
12512 52496
12512 52744
12512 52752
12568 103
12568 167
12568 199
12584 87
12584 151
12584 199
12592 79
12592 143
12592 199
12616 55
12616 151
12616 167
12624 47
12624 143
12624 167
12640 31
12640 143
12640 151
12680 55
12680 87
12680 103
12688 47
12688 79
12688 103
12704 31
12704 79
12704 87
12736 31
12736 47
12736 55
12824 103
12824 167
12824 199
12840 87
12840 151
12840 199
12848 79
12848 143
12848 199
12872 55
12872 151
12872 167
12880 47
12880 143
12880 167
12896 31
12896 143
12896 151
12936 55
12936 87
12936 103
12944 47
12944 79
12944 103
12960 31
12960 79
12960 87
12992 31
12992 47
12992 55
13064 49392
13072 49384
13088 49368
13120 49336
13184 49272
13315 19200
13317 19200
13318 19200
14339 18176
14341 18176
14342 18176
13336 103
13336 167
13336 199
13352 87
13352 151
13352 199
13360 79
13360 143
13360 199
13384 55
13384 151
13384 167
13392 47
13392 143
13392 167
13408 31
13408 143
13408 151
13448 55
13448 87
13448 103
13456 47
13456 79
13456 103
13472 31
13472 79
13472 87
13504 31
13504 47
13504 55
14360 103
14360 167
14360 199
14376 87
14376 151
14376 199
14384 79
14384 143
14384 199
14408 55
14408 151
14408 167
14416 47
14416 143
14416 167
14432 31
14432 143
14432 151
14472 55
14472 87
14472 103
14480 47
14480 79
14480 103
14496 31
14496 79
14496 87
14528 31
14528 47
14528 55
13576 55
13576 87
13576 103
13576 151
13576 167
13576 199
13584 47
13584 79
13584 103
13584 143
13584 167
13584 199
13600 31
13600 79
13600 87
13600 143
13600 151
13600 199
13632 31
13632 47
13632 55
13632 143
13632 151
13632 167
13696 31
13696 47
13696 55
13696 79
13696 87
13696 103
13832 55
13832 87
13832 103
13832 151
13832 167
13832 199
13840 47
13840 79
13840 103
13840 143
13840 167
13840 199
13856 31
13856 79
13856 87
13856 143
13856 151
13856 199
13888 31
13888 47
13888 55
13888 143
13888 151
13888 167
13952 31
13952 47
13952 55
13952 79
13952 87
13952 103
14600 55
14600 87
14600 103
14600 151
14600 167
14600 199
14608 47
14608 79
14608 103
14608 143
14608 167
14608 199
14624 31
14624 79
14624 87
14624 143
14624 151
14624 199
14656 31
14656 47
14656 55
14656 143
14656 151
14656 167
14720 31
14720 47
14720 55
14720 79
14720 87
14720 103
14856 55
14856 87
14856 103
14856 151
14856 167
14856 199
14864 47
14864 79
14864 103
14864 143
14864 167
14864 199
14880 31
14880 79
14880 87
14880 143
14880 151
14880 199
14912 31
14912 47
14912 55
14912 143
14912 151
14912 167
14976 31
14976 47
14976 55
14976 79
14976 87
14976 103
13576 567
13576 599
13576 615
13576 663
13576 679
13576 711
13584 559
13584 591
13584 615
13584 655
13584 679
13584 711
13600 543
13600 591
13600 599
13600 655
13600 663
13600 711
13632 543
13632 559
13632 567
13632 655
13632 663
13632 679
13696 543
13696 559
13696 567
13696 591
13696 599
13696 615
13832 311
13832 343
13832 359
13832 407
13832 423
13832 455
13840 303
13840 335
13840 359
13840 399
13840 423
13840 455
13856 287
13856 335
13856 343
13856 399
13856 407
13856 455
13888 287
13888 303
13888 311
13888 399
13888 407
13888 423
13952 287
13952 303
13952 311
13952 335
13952 343
13952 359
14600 567
14600 599
14600 615
14600 663
14600 679
14600 711
14608 559
14608 591
14608 615
14608 655
14608 679
14608 711
14624 543
14624 591
14624 599
14624 655
14624 663
14624 711
14656 543
14656 559
14656 567
14656 655
14656 663
14656 679
14720 543
14720 559
14720 567
14720 591
14720 599
14720 615
14856 311
14856 343
14856 359
14856 407
14856 423
14856 455
14864 303
14864 335
14864 359
14864 399
14864 423
14864 455
14880 287
14880 335
14880 343
14880 399
14880 407
14880 455
14912 287
14912 303
14912 311
14912 399
14912 407
14912 423
14976 287
14976 303
14976 311
14976 335
14976 343
14976 359
14080 63
14080 95
14080 111
14080 119
14080 159
14080 175
14080 183
14080 207
14080 215
14080 231
15104 63
15104 95
15104 111
15104 119
15104 159
15104 175
15104 183
15104 207
15104 215
15104 231
14080 2055
15104 1031
14080 16387
14080 16389
14080 16390
15104 16387
15104 16389
15104 16390
14080 16391
15104 16391
14080 49155
14080 49157
14080 49158
15104 49155
15104 49157
15104 49158
14080 49159
15104 49159
14080 51201
14080 51202
14080 51204
15104 50177
15104 50178
15104 50180
15368 49392
15376 49384
15392 49368
15424 49336
15488 49272
15616 7
15872 7
15616 16391
15872 16391
15616 16897
15616 16898
15616 16900
15872 16641
15872 16642
15872 16644
15616 16899
15616 16901
15616 16902
15872 16643
15872 16645
15872 16646
15616 16903
15872 16647
15616 32775
15872 32775
15616 33287
15872 33031
15616 49159
15872 49159
15616 49667
15616 49669
15616 49670
15872 49411
15872 49413
15872 49414
16399 4336
16407 4328
16423 4312
16455 4280
16519 4216
16696 199
16728 167
16744 151
16752 143
16792 103
16808 87
16816 79
16840 55
16848 47
16864 31
16952 199
16984 167
17000 151
17008 143
17048 103
17064 87
17072 79
17096 55
17104 47
17120 31
16696 711
16728 679
16744 663
16752 655
16792 615
16808 599
16816 591
16840 567
16848 559
16864 543
16952 455
16984 423
17000 407
17008 399
17048 359
17064 343
17072 335
17096 311
17104 303
17120 287
16696 1223
16696 2247
16728 1191
16728 2215
16744 1175
16744 2199
16752 1167
16752 2191
16792 1127
16792 2151
16808 1111
16808 2135
16816 1103
16816 2127
16840 1079
16840 2103
16848 1071
16848 2095
16864 1055
16864 2079
16952 1223
16952 2247
16984 1191
16984 2215
17000 1175
17000 2199
17008 1167
17008 2191
17048 1127
17048 2151
17064 1111
17064 2135
17072 1103
17072 2127
17096 1079
17096 2103
17104 1071
17104 2095
17120 1055
17120 2079
16696 8391
16728 8359
16744 8343
16752 8335
16792 8295
16808 8279
16816 8271
16840 8247
16848 8239
16864 8223
16952 8391
16984 8359
17000 8343
17008 8335
17048 8295
17064 8279
17072 8271
17096 8247
17104 8239
17120 8223
16696 32967
16728 32935
16744 32919
16752 32911
16792 32871
16808 32855
16816 32847
16840 32823
16848 32815
16864 32799
16952 32967
16984 32935
17000 32919
17008 32911
17048 32871
17064 32855
17072 32847
17096 32823
17104 32815
17120 32799
17464 199
17496 167
17512 151
17520 143
17560 103
17576 87
17584 79
17608 55
17616 47
17632 31
18488 199
18520 167
18536 151
18544 143
18584 103
18600 87
18608 79
18632 55
18640 47
18656 31
17464 455
17464 711
17496 423
17496 679
17512 407
17512 663
17520 399
17520 655
17560 359
17560 615
17576 343
17576 599
17584 335
17584 591
17608 311
17608 567
17616 303
17616 559
17632 287
17632 543
18488 455
18488 711
18520 423
18520 679
18536 407
18536 663
18544 399
18544 655
18584 359
18584 615
18600 343
18600 599
18608 335
18608 591
18632 311
18632 567
18640 303
18640 559
18656 287
18656 543
17464 2247
17496 2215
17512 2199
17520 2191
17560 2151
17576 2135
17584 2127
17608 2103
17616 2095
17632 2079
18488 1223
18520 1191
18536 1175
18544 1167
18584 1127
18600 1111
18608 1103
18632 1079
18640 1071
18656 1055
17464 8391
17496 8359
17512 8343
17520 8335
17560 8295
17576 8279
17584 8271
17608 8247
17616 8239
17632 8223
18488 8391
18520 8359
18536 8343
18544 8335
18584 8295
18600 8279
18608 8271
18632 8247
18640 8239
18656 8223
17464 15104
17496 15104
17512 15104
17520 15104
17560 15104
17576 15104
17584 15104
17608 15104
17616 15104
17632 15104
18488 14080
18520 14080
18536 14080
18544 14080
18584 14080
18600 14080
18608 14080
18632 14080
18640 14080
18656 14080
17464 32967
17496 32935
17512 32919
17520 32911
17560 32871
17576 32855
17584 32847
17608 32823
17616 32815
17632 32799
18488 32967
18520 32935
18536 32919
18544 32911
18584 32871
18600 32855
18608 32847
18632 32823
18640 32815
18656 32799
17464 47424
17464 47488
17464 47680
17464 47744
17496 47392
17496 47488
17496 47648
17496 47744
17512 47376
17512 47488
17512 47632
17512 47744
17520 47368
17520 47488
17520 47624
17520 47744
17560 47392
17560 47424
17560 47648
17560 47680
17576 47376
17576 47424
17576 47632
17576 47680
17584 47368
17584 47424
17584 47624
17584 47680
17608 47376
17608 47392
17608 47632
17608 47648
17616 47368
17616 47392
17616 47624
17616 47648
17632 47368
17632 47376
17632 47624
17632 47632
18488 46400
18488 46464
18488 46656
18488 46720
18520 46368
18520 46464
18520 46624
18520 46720
18536 46352
18536 46464
18536 46608
18536 46720
18544 46344
18544 46464
18544 46600
18544 46720
18584 46368
18584 46400
18584 46624
18584 46656
18600 46352
18600 46400
18600 46608
18600 46656
18608 46344
18608 46400
18608 46600
18608 46656
18632 46352
18632 46368
18632 46608
18632 46624
18640 46344
18640 46368
18640 46600
18640 46624
18656 46344
18656 46352
18656 46600
18656 46608
17688 615
17688 679
17688 711
17704 599
17704 663
17704 711
17712 591
17712 655
17712 711
17736 567
17736 663
17736 679
17744 559
17744 655
17744 679
17760 543
17760 655
17760 663
17800 567
17800 599
17800 615
17808 559
17808 591
17808 615
17824 543
17824 591
17824 599
17856 543
17856 559
17856 567
17944 359
17944 423
17944 455
17960 343
17960 407
17960 455
17968 335
17968 399
17968 455
17992 311
17992 407
17992 423
18000 303
18000 399
18000 423
18016 287
18016 399
18016 407
18056 311
18056 343
18056 359
18064 303
18064 335
18064 359
18080 287
18080 335
18080 343
18112 287
18112 303
18112 311
18712 615
18712 679
18712 711
18728 599
18728 663
18728 711
18736 591
18736 655
18736 711
18760 567
18760 663
18760 679
18768 559
18768 655
18768 679
18784 543
18784 655
18784 663
18824 567
18824 599
18824 615
18832 559
18832 591
18832 615
18848 543
18848 591
18848 599
18880 543
18880 559
18880 567
18968 359
18968 423
18968 455
18984 343
18984 407
18984 455
18992 335
18992 399
18992 455
19016 311
19016 407
19016 423
19024 303
19024 399
19024 423
19040 287
19040 399
19040 407
19080 311
19080 343
19080 359
19088 303
19088 335
19088 359
19104 287
19104 335
19104 343
19136 287
19136 303
19136 311
19480 225
19480 226
19480 228
19496 209
19496 210
19496 212
19504 201
19504 202
19504 204
19528 177
19528 178
19528 180
19536 169
19536 170
19536 172
19552 153
19552 154
19552 156
19592 113
19592 114
19592 116
19600 105
19600 106
19600 108
19616 89
19616 90
19616 92
19648 57
19648 58
19648 60
19720 55
19720 87
19720 103
19720 151
19720 167
19720 199
19728 47
19728 79
19728 103
19728 143
19728 167
19728 199
19744 31
19744 79
19744 87
19744 143
19744 151
19744 199
19776 31
19776 47
19776 55
19776 143
19776 151
19776 167
19840 31
19840 47
19840 55
19840 79
19840 87
19840 103
19976 55
19976 87
19976 103
19976 151
19976 167
19976 199
19984 47
19984 79
19984 103
19984 143
19984 167
19984 199
20000 31
20000 79
20000 87
20000 143
20000 151
20000 199
20032 31
20032 47
20032 55
20032 143
20032 151
20032 167
20096 31
20096 47
20096 55
20096 79
20096 87
20096 103
20224 7
20224 4103
20224 8199
20224 12291
20224 12293
20224 12294
20224 32771
20224 32773
20224 32774
20224 32775
20224 36867
20224 36869
20224 36870
20224 36871
20224 40963
20224 40965
20224 40966
20224 45059
20224 45061
20224 45062
20487 256
20487 512
20536 199
20568 167
20584 151
20592 143
20632 103
20648 87
20656 79
20680 55
20688 47
20704 31
20536 455
20536 711
20568 423
20568 679
20584 407
20584 663
20592 399
20592 655
20632 359
20632 615
20648 343
20648 599
20656 335
20656 591
20680 311
20680 567
20688 303
20688 559
20704 287
20704 543
20536 1223
20536 2247
20568 1191
20568 2215
20584 1175
20584 2199
20592 1167
20592 2191
20632 1127
20632 2151
20648 1111
20648 2135
20656 1103
20656 2127
20680 1079
20680 2103
20688 1071
20688 2095
20704 1055
20704 2079
20536 8391
20568 8359
20584 8343
20592 8335
20632 8295
20648 8279
20656 8271
20680 8247
20688 8239
20704 8223
20536 32967
20568 32935
20584 32919
20592 32911
20632 32871
20648 32855
20656 32847
20680 32823
20688 32815
20704 32799
21256 119
21256 183
21256 215
21256 231
21264 111
21264 175
21264 207
21264 231
21280 95
21280 159
21280 207
21280 215
21312 63
21312 159
21312 175
21312 183
21376 63
21376 95
21376 111
21376 119
21256 41200
21264 41192
21280 41176
21312 41144
21376 41080
21768 55
21768 87
21768 103
21768 151
21768 167
21768 199
21776 47
21776 79
21776 103
21776 143
21776 167
21776 199
21792 31
21792 79
21792 87
21792 143
21792 151
21792 199
21824 31
21824 47
21824 55
21824 143
21824 151
21824 167
21888 31
21888 47
21888 55
21888 79
21888 87
21888 103
22024 55
22024 87
22024 103
22024 151
22024 167
22024 199
22032 47
22032 79
22032 103
22032 143
22032 167
22032 199
22048 31
22048 79
22048 87
22048 143
22048 151
22048 199
22080 31
22080 47
22080 55
22080 143
22080 151
22080 167
22144 31
22144 47
22144 55
22144 79
22144 87
22144 103
22792 55
22792 87
22792 103
22792 151
22792 167
22792 199
22800 47
22800 79
22800 103
22800 143
22800 167
22800 199
22816 31
22816 79
22816 87
22816 143
22816 151
22816 199
22848 31
22848 47
22848 55
22848 143
22848 151
22848 167
22912 31
22912 47
22912 55
22912 79
22912 87
22912 103
23048 55
23048 87
23048 103
23048 151
23048 167
23048 199
23056 47
23056 79
23056 103
23056 143
23056 167
23056 199
23072 31
23072 79
23072 87
23072 143
23072 151
23072 199
23104 31
23104 47
23104 55
23104 143
23104 151
23104 167
23168 31
23168 47
23168 55
23168 79
23168 87
23168 103
21768 567
21768 599
21768 615
21768 663
21768 679
21768 711
21776 559
21776 591
21776 615
21776 655
21776 679
21776 711
21792 543
21792 591
21792 599
21792 655
21792 663
21792 711
21824 543
21824 559
21824 567
21824 655
21824 663
21824 679
21888 543
21888 559
21888 567
21888 591
21888 599
21888 615
22024 311
22024 343
22024 359
22024 407
22024 423
22024 455
22032 303
22032 335
22032 359
22032 399
22032 423
22032 455
22048 287
22048 335
22048 343
22048 399
22048 407
22048 455
22080 287
22080 303
22080 311
22080 399
22080 407
22080 423
22144 287
22144 303
22144 311
22144 335
22144 343
22144 359
22792 567
22792 599
22792 615
22792 663
22792 679
22792 711
22800 559
22800 591
22800 615
22800 655
22800 679
22800 711
22816 543
22816 591
22816 599
22816 655
22816 663
22816 711
22848 543
22848 559
22848 567
22848 655
22848 663
22848 679
22912 543
22912 559
22912 567
22912 591
22912 599
22912 615
23048 311
23048 343
23048 359
23048 407
23048 423
23048 455
23056 303
23056 335
23056 359
23056 399
23056 423
23056 455
23072 287
23072 335
23072 343
23072 399
23072 407
23072 455
23104 287
23104 303
23104 311
23104 399
23104 407
23104 423
23168 287
23168 303
23168 311
23168 335
23168 343
23168 359
21768 2103
21768 2135
21768 2151
21768 2199
21768 2215
21768 2247
21776 2095
21776 2127
21776 2151
21776 2191
21776 2215
21776 2247
21792 2079
21792 2127
21792 2135
21792 2191
21792 2199
21792 2247
21824 2079
21824 2095
21824 2103
21824 2191
21824 2199
21824 2215
21888 2079
21888 2095
21888 2103
21888 2127
21888 2135
21888 2151
22024 2103
22024 2135
22024 2151
22024 2199
22024 2215
22024 2247
22032 2095
22032 2127
22032 2151
22032 2191
22032 2215
22032 2247
22048 2079
22048 2127
22048 2135
22048 2191
22048 2199
22048 2247
22080 2079
22080 2095
22080 2103
22080 2191
22080 2199
22080 2215
22144 2079
22144 2095
22144 2103
22144 2127
22144 2135
22144 2151
22792 1079
22792 1111
22792 1127
22792 1175
22792 1191
22792 1223
22800 1071
22800 1103
22800 1127
22800 1167
22800 1191
22800 1223
22816 1055
22816 1103
22816 1111
22816 1167
22816 1175
22816 1223
22848 1055
22848 1071
22848 1079
22848 1167
22848 1175
22848 1191
22912 1055
22912 1071
22912 1079
22912 1103
22912 1111
22912 1127
23048 1079
23048 1111
23048 1127
23048 1175
23048 1191
23048 1223
23056 1071
23056 1103
23056 1127
23056 1167
23056 1191
23056 1223
23072 1055
23072 1103
23072 1111
23072 1167
23072 1175
23072 1223
23104 1055
23104 1071
23104 1079
23104 1167
23104 1175
23104 1191
23168 1055
23168 1071
23168 1079
23168 1103
23168 1111
23168 1127
22272 7
23296 7
22272 2049
22272 2050
22272 2052
23296 1025
23296 1026
23296 1028
22272 2055
23296 1031
22272 8199
23296 8199
22272 10243
22272 10245
22272 10246
23296 9219
23296 9221
23296 9222
22272 32775
23296 32775
22272 34823
23296 33799
22272 40967
23296 40967
23808 7
24064 7
23808 519
24064 263
23808 8199
24064 8199
23808 8707
23808 8709
23808 8710
24064 8451
24064 8453
24064 8454
23808 32775
24064 32775
23808 33283
23808 33285
23808 33286
24064 33027
24064 33029
24064 33030
24583 4352
24583 4608
24632 199
24664 167
24680 151
24688 143
24728 103
24744 87
24752 79
24776 55
24784 47
24800 31
24632 455
24632 711
24664 423
24664 679
24680 407
24680 663
24688 399
24688 655
24728 359
24728 615
24744 343
24744 599
24752 335
24752 591
24776 311
24776 567
24784 303
24784 559
24800 287
24800 543
24632 1223
24632 2247
24664 1191
24664 2215
24680 1175
24680 2199
24688 1167
24688 2191
24728 1127
24728 2151
24744 1111
24744 2135
24752 1103
24752 2127
24776 1079
24776 2103
24784 1071
24784 2095
24800 1055
24800 2079
24632 32967
24664 32935
24680 32919
24688 32911
24728 32871
24744 32855
24752 32847
24776 32823
24784 32815
24800 32799
24856 231
24872 215
24880 207
24904 183
24912 175
24928 159
24968 119
24976 111
24992 95
25024 63
25112 231
25128 215
25136 207
25160 183
25168 175
25184 159
25224 119
25232 111
25248 95
25280 63
24856 4199
24856 4263
24856 4295
24872 4183
24872 4247
24872 4295
24880 4175
24880 4239
24880 4295
24904 4151
24904 4247
24904 4263
24912 4143
24912 4239
24912 4263
24928 4127
24928 4239
24928 4247
24968 4151
24968 4183
24968 4199
24976 4143
24976 4175
24976 4199
24992 4127
24992 4175
24992 4183
25024 4127
25024 4143
25024 4151
25112 4199
25112 4263
25112 4295
25128 4183
25128 4247
25128 4295
25136 4175
25136 4239
25136 4295
25160 4151
25160 4247
25160 4263
25168 4143
25168 4239
25168 4263
25184 4127
25184 4239
25184 4247
25224 4151
25224 4183
25224 4199
25232 4143
25232 4175
25232 4199
25248 4127
25248 4175
25248 4183
25280 4127
25280 4143
25280 4151
24856 32871
24856 32935
24856 32967
24872 32855
24872 32919
24872 32967
24880 32847
24880 32911
24880 32967
24904 32823
24904 32919
24904 32935
24912 32815
24912 32911
24912 32935
24928 32799
24928 32911
24928 32919
24968 32823
24968 32855
24968 32871
24976 32815
24976 32847
24976 32871
24992 32799
24992 32847
24992 32855
25024 32799
25024 32815
25024 32823
25112 32871
25112 32935
25112 32967
25128 32855
25128 32919
25128 32967
25136 32847
25136 32911
25136 32967
25160 32823
25160 32919
25160 32935
25168 32815
25168 32911
25168 32935
25184 32799
25184 32911
25184 32919
25224 32823
25224 32855
25224 32871
25232 32815
25232 32847
25232 32871
25248 32799
25248 32847
25248 32855
25280 32799
25280 32815
25280 32823
25352 119
25352 183
25352 215
25352 231
25360 111
25360 175
25360 207
25360 231
25376 95
25376 159
25376 207
25376 215
25408 63
25408 159
25408 175
25408 183
25472 63
25472 95
25472 111
25472 119
25352 4336
25360 4328
25376 4312
25408 4280
25472 4216
25352 37104
25360 37096
25376 37080
25408 37048
25472 36984
26368 3
26368 5
26368 6
27392 3
27392 5
27392 6
26368 7
27392 7
26368 2055
27392 1031
26368 4099
26368 4101
26368 4102
27392 4099
27392 4101
27392 4102
26368 6151
27392 5127
26368 32775
27392 32775
26368 36871
27392 36871
26368 38912
27392 37888
27656 55
27656 87
27656 103
27656 151
27656 167
27656 199
27664 47
27664 79
27664 103
27664 143
27664 167
27664 199
27680 31
27680 79
27680 87
27680 143
27680 151
27680 199
27712 31
27712 47
27712 55
27712 143
27712 151
27712 167
27776 31
27776 47
27776 55
27776 79
27776 87
27776 103
27904 7
28160 7
27904 519
28160 263
27904 4103
28160 4103
27904 4615
28160 4359
27904 33283
27904 33285
27904 33286
28160 33027
28160 33029
28160 33030
28696 1127
28696 1191
28696 1223
28696 2151
28696 2215
28696 2247
28712 1111
28712 1175
28712 1223
28712 2135
28712 2199
28712 2247
28720 1103
28720 1167
28720 1223
28720 2127
28720 2191
28720 2247
28744 1079
28744 1175
28744 1191
28744 2103
28744 2199
28744 2215
28752 1071
28752 1167
28752 1191
28752 2095
28752 2191
28752 2215
28768 1055
28768 1167
28768 1175
28768 2079
28768 2191
28768 2199
28808 1079
28808 1111
28808 1127
28808 2103
28808 2135
28808 2151
28816 1071
28816 1103
28816 1127
28816 2095
28816 2127
28816 2151
28832 1055
28832 1103
28832 1111
28832 2079
28832 2127
28832 2135
28864 1055
28864 1071
28864 1079
28864 2079
28864 2095
28864 2103
28936 33520
28944 33512
28960 33496
28992 33464
29056 33400
29192 33264
29200 33256
29216 33240
29248 33208
29312 33144
29440 7
29440 1031
29440 2055
29440 3079
29440 32889
29440 32890
29440 32892
29440 32953
29440 32954
29440 32956
29440 32985
29440 32986
29440 32988
29440 33001
29440 33002
29440 33004
29440 33009
29440 33010
29440 33012
29440 33016
29440 33795
29440 33797
29440 33798
29440 34819
29440 34821
29440 34822
29440 35841
29440 35842
29440 35844
29704 35056
29712 35048
29728 35032
29760 35000
29824 34936
30728 34032
30736 34024
30752 34008
30784 33976
30848 33912
29952 7
30208 7
30976 7
31232 7
29952 519
30208 263
30976 519
31232 263
29952 2055
30208 2055
30976 1031
31232 1031
29952 2567
30208 2311
30976 1543
31232 1287
29952 32775
30208 32775
30976 32775
31232 32775
29952 33287
30208 33031
30976 33287
31232 33031
29952 34816
30208 34816
30976 33792
31232 33792
29952 34819
29952 34821
29952 34822
30208 34819
30208 34821
30208 34822
30976 33795
30976 33797
30976 33798
31232 33795
31232 33797
31232 33798
29952 34823
30208 34823
30976 33799
31232 33799
29952 35328
30208 35072
30976 34304
31232 34048
31744 259
31744 261
31744 262
31744 515
31744 517
31744 518
31744 263
31744 519
31744 775
31744 32775
31744 33027
31744 33029
31744 33030
31744 33283
31744 33285
31744 33286
32783 4592
32783 4848
32791 4584
32791 4840
32807 4568
32807 4824
32839 4536
32839 4792
32903 4472
32903 4728
32783 8432
32791 8424
32807 8408
32839 8376
32903 8312
32783 12528
32791 12520
32807 12504
32839 12472
32903 12408
32888 14080
32888 15104
32952 14080
32952 15104
32984 14080
32984 15104
33000 14080
33000 15104
33008 14080
33008 15104
32888 15616
32888 15872
32952 15616
32952 15872
32984 15616
32984 15872
33000 15616
33000 15872
33008 15616
33008 15872
32888 15744
32888 16000
32952 15680
32952 15936
32984 15648
32984 15904
33000 15632
33000 15888
33008 15624
33008 15880
32888 20352
32952 20288
32984 20256
33000 20240
33008 20232
32888 22272
32888 23296
32952 22272
32952 23296
32984 22272
32984 23296
33000 22272
33000 23296
33008 22272
33008 23296
32888 22400
32888 23424
32952 22336
32952 23360
32984 22304
32984 23328
33000 22288
33000 23312
33008 22280
33008 23304
32888 26368
32888 27392
32952 26368
32952 27392
32984 26368
32984 27392
33000 26368
33000 27392
33008 26368
33008 27392
33031 12800
33287 12544
33031 17920
33031 18944
33287 17664
33287 18688
33080 199
33112 167
33128 151
33136 143
33176 103
33192 87
33200 79
33224 55
33232 47
33248 31
33336 199
33368 167
33384 151
33392 143
33432 103
33448 87
33456 79
33480 55
33488 47
33504 31
33080 711
33112 679
33128 663
33136 655
33176 615
33192 599
33200 591
33224 567
33232 559
33248 543
33336 455
33368 423
33384 407
33392 399
33432 359
33448 343
33456 335
33480 311
33488 303
33504 287
33080 1223
33080 2247
33112 1191
33112 2215
33128 1175
33128 2199
33136 1167
33136 2191
33176 1127
33176 2151
33192 1111
33192 2135
33200 1103
33200 2127
33224 1079
33224 2103
33232 1071
33232 2095
33248 1055
33248 2079
33336 1223
33336 2247
33368 1191
33368 2215
33384 1175
33384 2199
33392 1167
33392 2191
33432 1127
33432 2151
33448 1111
33448 2135
33456 1103
33456 2127
33480 1079
33480 2103
33488 1071
33488 2095
33504 1055
33504 2079
33080 8391
33112 8359
33128 8343
33136 8335
33176 8295
33192 8279
33200 8271
33224 8247
33232 8239
33248 8223
33336 8391
33368 8359
33384 8343
33392 8335
33432 8295
33448 8279
33456 8271
33480 8247
33488 8239
33504 8223
33080 15872
33112 15872
33128 15872
33136 15872
33176 15872
33192 15872
33200 15872
33224 15872
33232 15872
33248 15872
33336 15616
33368 15616
33384 15616
33392 15616
33432 15616
33448 15616
33456 15616
33480 15616
33488 15616
33504 15616
33080 15936
33080 16000
33112 15904
33112 16000
33128 15888
33128 16000
33136 15880
33136 16000
33176 15904
33176 15936
33192 15888
33192 15936
33200 15880
33200 15936
33224 15888
33224 15904
33232 15880
33232 15904
33248 15880
33248 15888
33336 15680
33336 15744
33368 15648
33368 15744
33384 15632
33384 15744
33392 15624
33392 15744
33432 15648
33432 15680
33448 15632
33448 15680
33456 15624
33456 15680
33480 15632
33480 15648
33488 15624
33488 15648
33504 15624
33504 15632
33080 16583
33112 16551
33128 16535
33136 16527
33176 16487
33192 16471
33200 16463
33224 16439
33232 16431
33248 16415
33336 16583
33368 16551
33384 16535
33392 16527
33432 16487
33448 16471
33456 16463
33480 16439
33488 16431
33504 16415
33848 199
33880 167
33896 151
33904 143
33944 103
33960 87
33968 79
33992 55
34000 47
34016 31
34872 199
34904 167
34920 151
34928 143
34968 103
34984 87
34992 79
35016 55
35024 47
35040 31
33848 455
33848 711
33880 423
33880 679
33896 407
33896 663
33904 399
33904 655
33944 359
33944 615
33960 343
33960 599
33968 335
33968 591
33992 311
33992 567
34000 303
34000 559
34016 287
34016 543
34872 455
34872 711
34904 423
34904 679
34920 407
34920 663
34928 399
34928 655
34968 359
34968 615
34984 343
34984 599
34992 335
34992 591
35016 311
35016 567
35024 303
35024 559
35040 287
35040 543
33848 2247
33880 2215
33896 2199
33904 2191
33944 2151
33960 2135
33968 2127
33992 2103
34000 2095
34016 2079
34872 1223
34904 1191
34920 1175
34928 1167
34968 1127
34984 1111
34992 1103
35016 1079
35024 1071
35040 1055
33848 8391
33880 8359
33896 8343
33904 8335
33944 8295
33960 8279
33968 8271
33992 8247
34000 8239
34016 8223
34872 8391
34904 8359
34920 8343
34928 8335
34968 8295
34984 8279
34992 8271
35016 8247
35024 8239
35040 8223
34568 241
34568 242
34568 244
34576 233
34576 234
34576 236
34592 217
34592 218
34592 220
34624 185
34624 186
34624 188
34688 121
34688 122
34688 124
35592 241
35592 242
35592 244
35600 233
35600 234
35600 236
35616 217
35616 218
35616 220
35648 185
35648 186
35648 188
35712 121
35712 122
35712 124
34568 2288
34576 2280
34592 2264
34624 2232
34688 2168
35592 1264
35600 1256
35616 1240
35648 1208
35712 1144
35843 13056
35845 13056
35846 13056
35864 16487
35864 16551
35864 16583
35880 16471
35880 16535
35880 16583
35888 16463
35888 16527
35888 16583
35912 16439
35912 16535
35912 16551
35920 16431
35920 16527
35920 16551
35936 16415
35936 16527
35936 16535
35976 16439
35976 16471
35976 16487
35984 16431
35984 16463
35984 16487
36000 16415
36000 16463
36000 16471
36032 16415
36032 16431
36032 16439
36104 55
36104 87
36104 103
36104 151
36104 167
36104 199
36112 47
36112 79
36112 103
36112 143
36112 167
36112 199
36128 31
36128 79
36128 87
36128 143
36128 151
36128 199
36160 31
36160 47
36160 55
36160 143
36160 151
36160 167
36224 31
36224 47
36224 55
36224 79
36224 87
36224 103
36360 55
36360 87
36360 103
36360 151
36360 167
36360 199
36368 47
36368 79
36368 103
36368 143
36368 167
36368 199
36384 31
36384 79
36384 87
36384 143
36384 151
36384 199
36416 31
36416 47
36416 55
36416 143
36416 151
36416 167
36480 31
36480 47
36480 55
36480 79
36480 87
36480 103
36608 12295
36608 20483
36608 20485
36608 20486
36608 24632
36608 24664
36608 24680
36608 24688
36608 24728
36608 24744
36608 24752
36608 24776
36608 24784
36608 24800
36920 199
36952 167
36968 151
36976 143
37016 103
37032 87
37040 79
37064 55
37072 47
37088 31
36920 455
36920 711
36952 423
36952 679
36968 407
36968 663
36976 399
36976 655
37016 359
37016 615
37032 343
37032 599
37040 335
37040 591
37064 311
37064 567
37072 303
37072 559
37088 287
37088 543
36920 1223
36920 2247
36952 1191
36952 2215
36968 1175
36968 2199
36976 1167
36976 2191
37016 1127
37016 2151
37032 1111
37032 2135
37040 1103
37040 2127
37064 1079
37064 2103
37072 1071
37072 2095
37088 1055
37088 2079
36920 8391
36952 8359
36968 8343
36976 8335
37016 8295
37032 8279
37040 8271
37064 8247
37072 8239
37088 8223
36920 16583
36952 16551
36968 16535
36976 16527
37016 16487
37032 16471
37040 16463
37064 16439
37072 16431
37088 16415
37144 615
37144 679
37144 711
37160 599
37160 663
37160 711
37168 591
37168 655
37168 711
37192 567
37192 663
37192 679
37200 559
37200 655
37200 679
37216 543
37216 655
37216 663
37256 567
37256 599
37256 615
37264 559
37264 591
37264 615
37280 543
37280 591
37280 599
37312 543
37312 559
37312 567
37400 359
37400 423
37400 455
37416 343
37416 407
37416 455
37424 335
37424 399
37424 455
37448 311
37448 407
37448 423
37456 303
37456 399
37456 423
37472 287
37472 399
37472 407
37512 311
37512 343
37512 359
37520 303
37520 335
37520 359
37536 287
37536 335
37536 343
37568 287
37568 303
37568 311
37144 8295
37144 8359
37144 8391
37160 8279
37160 8343
37160 8391
37168 8271
37168 8335
37168 8391
37192 8247
37192 8343
37192 8359
37200 8239
37200 8335
37200 8359
37216 8223
37216 8335
37216 8343
37256 8247
37256 8279
37256 8295
37264 8239
37264 8271
37264 8295
37280 8223
37280 8271
37280 8279
37312 8223
37312 8239
37312 8247
37400 8295
37400 8359
37400 8391
37416 8279
37416 8343
37416 8391
37424 8271
37424 8335
37424 8391
37448 8247
37448 8343
37448 8359
37456 8239
37456 8335
37456 8359
37472 8223
37472 8335
37472 8343
37512 8247
37512 8279
37512 8295
37520 8239
37520 8271
37520 8295
37536 8223
37536 8271
37536 8279
37568 8223
37568 8239
37568 8247
37640 119
37640 183
37640 215
37640 231
37648 111
37648 175
37648 207
37648 231
37664 95
37664 159
37664 207
37664 215
37696 63
37696 159
37696 175
37696 183
37760 63
37760 95
37760 111
37760 119
37640 1079
37640 1111
37640 1127
37640 1175
37640 1191
37640 1223
37640 2103
37640 2135
37640 2151
37640 2199
37640 2215
37640 2247
37648 1071
37648 1103
37648 1127
37648 1167
37648 1191
37648 1223
37648 2095
37648 2127
37648 2151
37648 2191
37648 2215
37648 2247
37664 1055
37664 1103
37664 1111
37664 1167
37664 1175
37664 1223
37664 2079
37664 2127
37664 2135
37664 2191
37664 2199
37664 2247
37696 1055
37696 1071
37696 1079
37696 1167
37696 1175
37696 1191
37696 2079
37696 2095
37696 2103
37696 2191
37696 2199
37696 2215
37760 1055
37760 1071
37760 1079
37760 1103
37760 1111
37760 1127
37760 2079
37760 2095
37760 2103
37760 2127
37760 2135
37760 2151
37912 16487
37912 16551
37912 16583
37928 16471
37928 16535
37928 16583
37936 16463
37936 16527
37936 16583
37960 16439
37960 16535
37960 16551
37968 16431
37968 16527
37968 16551
37984 16415
37984 16527
37984 16535
38024 16439
38024 16471
38024 16487
38032 16431
38032 16463
38032 16487
38048 16415
38048 16463
38048 16471
38080 16415
38080 16431
38080 16439
38936 16487
38936 16551
38936 16583
38952 16471
38952 16535
38952 16583
38960 16463
38960 16527
38960 16583
38984 16439
38984 16535
38984 16551
38992 16431
38992 16527
38992 16551
39008 16415
39008 16527
39008 16535
39048 16439
39048 16471
39048 16487
39056 16431
39056 16463
39056 16487
39072 16415
39072 16463
39072 16471
39104 16415
39104 16431
39104 16439
38152 55
38152 87
38152 103
38152 151
38152 167
38152 199
38160 47
38160 79
38160 103
38160 143
38160 167
38160 199
38176 31
38176 79
38176 87
38176 143
38176 151
38176 199
38208 31
38208 47
38208 55
38208 143
38208 151
38208 167
38272 31
38272 47
38272 55
38272 79
38272 87
38272 103
38408 55
38408 87
38408 103
38408 151
38408 167
38408 199
38416 47
38416 79
38416 103
38416 143
38416 167
38416 199
38432 31
38432 79
38432 87
38432 143
38432 151
38432 199
38464 31
38464 47
38464 55
38464 143
38464 151
38464 167
38528 31
38528 47
38528 55
38528 79
38528 87
38528 103
39176 55
39176 87
39176 103
39176 151
39176 167
39176 199
39184 47
39184 79
39184 103
39184 143
39184 167
39184 199
39200 31
39200 79
39200 87
39200 143
39200 151
39200 199
39232 31
39232 47
39232 55
39232 143
39232 151
39232 167
39296 31
39296 47
39296 55
39296 79
39296 87
39296 103
39432 55
39432 87
39432 103
39432 151
39432 167
39432 199
39440 47
39440 79
39440 103
39440 143
39440 167
39440 199
39456 31
39456 79
39456 87
39456 143
39456 151
39456 199
39488 31
39488 47
39488 55
39488 143
39488 151
39488 167
39552 31
39552 47
39552 55
39552 79
39552 87
39552 103
38152 567
38152 599
38152 615
38152 663
38152 679
38152 711
38160 559
38160 591
38160 615
38160 655
38160 679
38160 711
38176 543
38176 591
38176 599
38176 655
38176 663
38176 711
38208 543
38208 559
38208 567
38208 655
38208 663
38208 679
38272 543
38272 559
38272 567
38272 591
38272 599
38272 615
38408 311
38408 343
38408 359
38408 407
38408 423
38408 455
38416 303
38416 335
38416 359
38416 399
38416 423
38416 455
38432 287
38432 335
38432 343
38432 399
38432 407
38432 455
38464 287
38464 303
38464 311
38464 399
38464 407
38464 423
38528 287
38528 303
38528 311
38528 335
38528 343
38528 359
39176 567
39176 599
39176 615
39176 663
39176 679
39176 711
39184 559
39184 591
39184 615
39184 655
39184 679
39184 711
39200 543
39200 591
39200 599
39200 655
39200 663
39200 711
39232 543
39232 559
39232 567
39232 655
39232 663
39232 679
39296 543
39296 559
39296 567
39296 591
39296 599
39296 615
39432 311
39432 343
39432 359
39432 407
39432 423
39432 455
39440 303
39440 335
39440 359
39440 399
39440 423
39440 455
39456 287
39456 335
39456 343
39456 399
39456 407
39456 455
39488 287
39488 303
39488 311
39488 399
39488 407
39488 423
39552 287
39552 303
39552 311
39552 335
39552 343
39552 359
38656 8192
39680 8192
38656 8199
39680 8199
38656 16391
39680 16391
38656 26631
39680 25607
40192 7
40448 7
40192 519
40448 263
40192 8199
40448 8199
40192 16903
40448 16647
40192 25089
40192 25090
40192 25092
40448 24833
40448 24834
40448 24836
41016 199
41048 167
41064 151
41072 143
41112 103
41128 87
41136 79
41160 55
41168 47
41184 31
41016 455
41016 711
41048 423
41048 679
41064 407
41064 663
41072 399
41072 655
41112 359
41112 615
41128 343
41128 599
41136 335
41136 591
41160 311
41160 567
41168 303
41168 559
41184 287
41184 543
41016 1223
41016 2247
41048 1191
41048 2215
41064 1175
41064 2199
41072 1167
41072 2191
41112 1127
41112 2151
41128 1111
41128 2135
41136 1103
41136 2127
41160 1079
41160 2103
41168 1071
41168 2095
41184 1055
41184 2079
41016 16583
41048 16551
41064 16535
41072 16527
41112 16487
41128 16471
41136 16463
41160 16439
41168 16431
41184 16415
41240 615
41240 679
41240 711
41256 599
41256 663
41256 711
41264 591
41264 655
41264 711
41288 567
41288 663
41288 679
41296 559
41296 655
41296 679
41312 543
41312 655
41312 663
41352 567
41352 599
41352 615
41360 559
41360 591
41360 615
41376 543
41376 591
41376 599
41408 543
41408 559
41408 567
41496 359
41496 423
41496 455
41512 343
41512 407
41512 455
41520 335
41520 399
41520 455
41544 311
41544 407
41544 423
41552 303
41552 399
41552 423
41568 287
41568 399
41568 407
41608 311
41608 343
41608 359
41616 303
41616 335
41616 359
41632 287
41632 335
41632 343
41664 287
41664 303
41664 311
42752 2055
43776 1031
42752 4097
42752 4098
42752 4100
43776 4097
43776 4098
43776 4100
42752 20481
42752 20482
42752 20484
43776 20481
43776 20482
43776 20484
42752 20487
43776 20487
42752 22529
42752 22530
42752 22532
43776 21505
43776 21506
43776 21508
44288 7
44544 7
44288 515
44288 517
44288 518
44544 259
44544 261
44544 262
44288 519
44544 263
44288 4103
44544 4103
44288 4615
44544 4359
44288 16391
44544 16391
44288 16897
44288 16898
44288 16900
44544 16641
44544 16642
44544 16644
44288 16903
44544 16647
44288 20487
44544 20487
45080 1249
45080 1250
45080 1252
45080 2273
45080 2274
45080 2276
45096 1233
45096 1234
45096 1236
45096 2257
45096 2258
45096 2260
45104 1225
45104 1226
45104 1228
45104 2249
45104 2250
45104 2252
45128 1201
45128 1202
45128 1204
45128 2225
45128 2226
45128 2228
45136 1193
45136 1194
45136 1196
45136 2217
45136 2218
45136 2220
45152 1177
45152 1178
45152 1180
45152 2201
45152 2202
45152 2204
45192 1137
45192 1138
45192 1140
45192 2161
45192 2162
45192 2164
45200 1129
45200 1130
45200 1132
45200 2153
45200 2154
45200 2156
45216 1113
45216 1114
45216 1116
45216 2137
45216 2138
45216 2140
45248 1081
45248 1082
45248 1084
45248 2105
45248 2106
45248 2108
45313 16446
45313 16478
45313 16494
45313 16502
45313 16542
45313 16558
45313 16566
45313 16590
45313 16598
45313 16614
45314 16445
45314 16477
45314 16493
45314 16501
45314 16541
45314 16557
45314 16565
45314 16589
45314 16597
45314 16613
45316 16443
45316 16475
45316 16491
45316 16499
45316 16539
45316 16555
45316 16563
45316 16587
45316 16595
45316 16611
45569 16446
45569 16478
45569 16494
45569 16502
45569 16542
45569 16558
45569 16566
45569 16590
45569 16598
45569 16614
45570 16445
45570 16477
45570 16493
45570 16501
45570 16541
45570 16557
45570 16565
45570 16589
45570 16597
45570 16613
45572 16443
45572 16475
45572 16491
45572 16499
45572 16539
45572 16555
45572 16563
45572 16587
45572 16595
45572 16611
45320 119
45320 183
45320 215
45320 231
45328 111
45328 175
45328 207
45328 231
45344 95
45344 159
45344 207
45344 215
45376 63
45376 159
45376 175
45376 183
45440 63
45440 95
45440 111
45440 119
45576 119
45576 183
45576 215
45576 231
45584 111
45584 175
45584 207
45584 231
45600 95
45600 159
45600 207
45600 215
45632 63
45632 159
45632 175
45632 183
45696 63
45696 95
45696 111
45696 119
45824 3
45824 5
45824 6
45824 7
45824 16391
46336 7
46592 7
47360 7
47616 7
46336 515
46336 517
46336 518
46592 259
46592 261
46592 262
47360 515
47360 517
47360 518
47616 259
47616 261
47616 262
46336 519
46592 263
47360 519
47616 263
46336 2055
46592 2055
47360 1031
47616 1031
46336 16391
46592 16391
47360 16391
47616 16391
46336 16903
46592 16647
47360 16903
47616 16647
46336 18439
46592 18439
47360 17415
47616 17415
46336 18951
46592 18695
47360 17927
47616 17671
48128 1
48128 2
48128 4
48128 7
48128 63
48128 95
48128 111
48128 119
48128 159
48128 175
48128 183
48128 207
48128 215
48128 231
48128 121
48128 122
48128 124
48128 185
48128 186
48128 188
48128 217
48128 218
48128 220
48128 233
48128 234
48128 236
48128 241
48128 242
48128 244
48128 248
48128 249
48128 250
48128 252
48128 376
48128 440
48128 472
48128 488
48128 496
48128 632
48128 696
48128 728
48128 744
48128 752
48128 768
48128 775
49208 199
49240 167
49256 151
49264 143
49304 103
49320 87
49328 79
49352 55
49360 47
49376 31
49208 455
49208 711
49240 423
49240 679
49256 407
49256 663
49264 399
49264 655
49304 359
49304 615
49320 343
49320 599
49328 335
49328 591
49352 311
49352 567
49360 303
49360 559
49376 287
49376 543
49208 1223
49208 2247
49240 1191
49240 2215
49256 1175
49256 2199
49264 1167
49264 2191
49304 1127
49304 2151
49320 1111
49320 2135
49328 1103
49328 2127
49352 1079
49352 2103
49360 1071
49360 2095
49376 1055
49376 2079
49208 8391
49240 8359
49256 8343
49264 8335
49304 8295
49320 8279
49328 8271
49352 8247
49360 8239
49376 8223
49928 241
49928 242
49928 244
49936 233
49936 234
49936 236
49952 217
49952 218
49952 220
49984 185
49984 186
49984 188
50048 121
50048 122
50048 124
50200 2151
50200 2215
50200 2247
50216 2135
50216 2199
50216 2247
50224 2127
50224 2191
50224 2247
50248 2103
50248 2199
50248 2215
50256 2095
50256 2191
50256 2215
50272 2079
50272 2191
50272 2199
50312 2103
50312 2135
50312 2151
50320 2095
50320 2127
50320 2151
50336 2079
50336 2127
50336 2135
50368 2079
50368 2095
50368 2103
51224 1127
51224 1191
51224 1223
51240 1111
51240 1175
51240 1223
51248 1103
51248 1167
51248 1223
51272 1079
51272 1175
51272 1191
51280 1071
51280 1167
51280 1191
51296 1055
51296 1167
51296 1175
51336 1079
51336 1111
51336 1127
51344 1071
51344 1103
51344 1127
51360 1055
51360 1103
51360 1111
51392 1055
51392 1071
51392 1079
50200 4199
50200 4263
50200 4295
50216 4183
50216 4247
50216 4295
50224 4175
50224 4239
50224 4295
50248 4151
50248 4247
50248 4263
50256 4143
50256 4239
50256 4263
50272 4127
50272 4239
50272 4247
50312 4151
50312 4183
50312 4199
50320 4143
50320 4175
50320 4199
50336 4127
50336 4175
50336 4183
50368 4127
50368 4143
50368 4151
51224 4199
51224 4263
51224 4295
51240 4183
51240 4247
51240 4295
51248 4175
51248 4239
51248 4295
51272 4151
51272 4247
51272 4263
51280 4143
51280 4239
51280 4263
51296 4127
51296 4239
51296 4247
51336 4151
51336 4183
51336 4199
51344 4143
51344 4175
51344 4199
51360 4127
51360 4175
51360 4183
51392 4127
51392 4143
51392 4151
50440 55
50440 87
50440 103
50440 151
50440 167
50440 199
50448 47
50448 79
50448 103
50448 143
50448 167
50448 199
50464 31
50464 79
50464 87
50464 143
50464 151
50464 199
50496 31
50496 47
50496 55
50496 143
50496 151
50496 167
50560 31
50560 47
50560 55
50560 79
50560 87
50560 103
50696 55
50696 87
50696 103
50696 151
50696 167
50696 199
50704 47
50704 79
50704 103
50704 143
50704 167
50704 199
50720 31
50720 79
50720 87
50720 143
50720 151
50720 199
50752 31
50752 47
50752 55
50752 143
50752 151
50752 167
50816 31
50816 47
50816 55
50816 79
50816 87
50816 103
51464 55
51464 87
51464 103
51464 151
51464 167
51464 199
51472 47
51472 79
51472 103
51472 143
51472 167
51472 199
51488 31
51488 79
51488 87
51488 143
51488 151
51488 199
51520 31
51520 47
51520 55
51520 143
51520 151
51520 167
51584 31
51584 47
51584 55
51584 79
51584 87
51584 103
51720 55
51720 87
51720 103
51720 151
51720 167
51720 199
51728 47
51728 79
51728 103
51728 143
51728 167
51728 199
51744 31
51744 79
51744 87
51744 143
51744 151
51744 199
51776 31
51776 47
51776 55
51776 143
51776 151
51776 167
51840 31
51840 47
51840 55
51840 79
51840 87
51840 103
50440 119
50440 183
50440 215
50440 231
50448 111
50448 175
50448 207
50448 231
50464 95
50464 159
50464 207
50464 215
50496 63
50496 159
50496 175
50496 183
50560 63
50560 95
50560 111
50560 119
50696 119
50696 183
50696 215
50696 231
50704 111
50704 175
50704 207
50704 231
50720 95
50720 159
50720 207
50720 215
50752 63
50752 159
50752 175
50752 183
50816 63
50816 95
50816 111
50816 119
51464 119
51464 183
51464 215
51464 231
51472 111
51472 175
51472 207
51472 231
51488 95
51488 159
51488 207
51488 215
51520 63
51520 159
51520 175
51520 183
51584 63
51584 95
51584 111
51584 119
51720 119
51720 183
51720 215
51720 231
51728 111
51728 175
51728 207
51728 231
51744 95
51744 159
51744 207
51744 215
51776 63
51776 159
51776 175
51776 183
51840 63
51840 95
51840 111
51840 119
50440 2289
50440 2290
50440 2292
50448 2281
50448 2282
50448 2284
50464 2265
50464 2266
50464 2268
50496 2233
50496 2234
50496 2236
50560 2169
50560 2170
50560 2172
50696 2289
50696 2290
50696 2292
50704 2281
50704 2282
50704 2284
50720 2265
50720 2266
50720 2268
50752 2233
50752 2234
50752 2236
50816 2169
50816 2170
50816 2172
51464 1265
51464 1266
51464 1268
51472 1257
51472 1258
51472 1260
51488 1241
51488 1242
51488 1244
51520 1209
51520 1210
51520 1212
51584 1145
51584 1146
51584 1148
51720 1265
51720 1266
51720 1268
51728 1257
51728 1258
51728 1260
51744 1241
51744 1242
51744 1244
51776 1209
51776 1210
51776 1212
51840 1145
51840 1146
51840 1148
50944 7
51968 7
50944 2055
51968 1031
50944 6151
51968 5127
50944 8199
51968 8199
50944 10241
50944 10242
50944 10244
51968 9217
51968 9218
51968 9220
50944 12295
51968 12295
52480 7
52736 7
52480 63
52480 95
52480 111
52480 119
52480 159
52480 175
52480 183
52480 207
52480 215
52480 231
52736 63
52736 95
52736 111
52736 119
52736 159
52736 175
52736 183
52736 207
52736 215
52736 231
52480 8199
52736 8199
52480 8707
52480 8709
52480 8710
52736 8451
52736 8453
52736 8454
53272 103
53272 167
53272 199
53288 87
53288 151
53288 199
53296 79
53296 143
53296 199
53320 55
53320 151
53320 167
53328 47
53328 143
53328 167
53344 31
53344 143
53344 151
53384 55
53384 87
53384 103
53392 47
53392 79
53392 103
53408 31
53408 79
53408 87
53440 31
53440 47
53440 55
53512 8432
53520 8424
53536 8408
53568 8376
53632 8312
53768 8432
53776 8424
53792 8408
53824 8376
53888 8312
54016 7
54016 1031
54016 2055
54016 3079
54016 8313
54016 8314
54016 8316
54016 8377
54016 8378
54016 8380
54016 8409
54016 8410
54016 8412
54016 8425
54016 8426
54016 8428
54016 8433
54016 8434
54016 8436
54016 9217
54016 9218
54016 9220
54016 10241
54016 10242
54016 10244
54016 9223
54016 10247
54016 11271
54528 7
54784 7
55552 7
55808 7
54528 519
54784 263
55552 519
55808 263
54528 2055
54784 2055
55552 1031
55808 1031
54528 2563
54528 2565
54528 2566
54784 2307
54784 2309
54784 2310
55552 1539
55552 1541
55552 1542
55808 1283
55808 1285
55808 1286
54528 2567
54784 2311
55552 1543
55808 1287
54528 8711
54784 8455
55552 8711
55808 8455
54528 10247
54784 10247
55552 9223
55808 9223
54528 10296
54528 10328
54528 10344
54528 10352
54528 10392
54528 10408
54528 10416
54528 10440
54528 10448
54528 10464
54784 10296
54784 10328
54784 10344
54784 10352
54784 10392
54784 10408
54784 10416
54784 10440
54784 10448
54784 10464
55552 9272
55552 9304
55552 9320
55552 9328
55552 9368
55552 9384
55552 9392
55552 9416
55552 9424
55552 9440
55808 9272
55808 9304
55808 9320
55808 9328
55808 9368
55808 9384
55808 9392
55808 9416
55808 9424
55808 9440
54528 10753
54528 10754
54528 10756
54784 10497
54784 10498
54784 10500
55552 9729
55552 9730
55552 9732
55808 9473
55808 9474
55808 9476
56320 3
56320 5
56320 6
56320 7
56320 771
56320 773
56320 774
56320 775
56320 8199
56320 8451
56320 8453
56320 8454
56320 8707
56320 8709
56320 8710
57368 103
57368 167
57368 199
57384 87
57384 151
57384 199
57392 79
57392 143
57392 199
57416 55
57416 151
57416 167
57424 47
57424 143
57424 167
57440 31
57440 143
57440 151
57480 55
57480 87
57480 103
57488 47
57488 79
57488 103
57504 31
57504 79
57504 87
57536 31
57536 47
57536 55
57368 359
57368 423
57368 455
57368 615
57368 679
57368 711
57384 343
57384 407
57384 455
57384 599
57384 663
57384 711
57392 335
57392 399
57392 455
57392 591
57392 655
57392 711
57416 311
57416 407
57416 423
57416 567
57416 663
57416 679
57424 303
57424 399
57424 423
57424 559
57424 655
57424 679
57440 287
57440 399
57440 407
57440 543
57440 655
57440 663
57480 311
57480 343
57480 359
57480 567
57480 599
57480 615
57488 303
57488 335
57488 359
57488 559
57488 591
57488 615
57504 287
57504 335
57504 343
57504 543
57504 591
57504 599
57536 287
57536 303
57536 311
57536 543
57536 559
57536 567
57368 1127
57368 1191
57368 1223
57368 2151
57368 2215
57368 2247
57384 1111
57384 1175
57384 1223
57384 2135
57384 2199
57384 2247
57392 1103
57392 1167
57392 1223
57392 2127
57392 2191
57392 2247
57416 1079
57416 1175
57416 1191
57416 2103
57416 2199
57416 2215
57424 1071
57424 1167
57424 1191
57424 2095
57424 2191
57424 2215
57440 1055
57440 1167
57440 1175
57440 2079
57440 2191
57440 2199
57480 1079
57480 1111
57480 1127
57480 2103
57480 2135
57480 2151
57488 1071
57488 1103
57488 1127
57488 2095
57488 2127
57488 2151
57504 1055
57504 1103
57504 1111
57504 2079
57504 2127
57504 2135
57536 1055
57536 1071
57536 1079
57536 2079
57536 2095
57536 2103
57608 4336
57616 4328
57632 4312
57664 4280
57728 4216
57864 4336
57872 4328
57888 4312
57920 4280
57984 4216
57608 4848
57616 4840
57632 4824
57664 4792
57728 4728
57864 4592
57872 4584
57888 4568
57920 4536
57984 4472
58112 7
58112 63
58112 95
58112 111
58112 119
58112 159
58112 175
58112 183
58112 207
58112 215
58112 231
58112 3079
58112 4096
58112 4344
58112 5127
58112 6151
58112 7171
58112 7173
58112 7174
58112 7175
58624 7
58880 7
59648 7
59904 7
58624 2563
58624 2565
58624 2566
58880 2307
58880 2309
58880 2310
59648 1539
59648 1541
59648 1542
59904 1283
59904 1285
59904 1286
58624 2567
58880 2311
59648 1543
59904 1287
58624 4103
58880 4103
59648 4103
59904 4103
58624 4615
58880 4359
59648 4615
59904 4359
58624 6200
58624 6232
58624 6248
58624 6256
58624 6296
58624 6312
58624 6320
58624 6344
58624 6352
58624 6368
58880 6200
58880 6232
58880 6248
58880 6256
58880 6296
58880 6312
58880 6320
58880 6344
58880 6352
58880 6368
59648 5176
59648 5208
59648 5224
59648 5232
59648 5272
59648 5288
59648 5296
59648 5320
59648 5328
59648 5344
59904 5176
59904 5208
59904 5224
59904 5232
59904 5272
59904 5288
59904 5296
59904 5320
59904 5328
59904 5344
60416 3
60416 5
60416 6
60416 771
60416 773
60416 774
61696 515
61696 517
61696 518
61952 259
61952 261
61952 262
61696 519
61952 263
61696 1543
61696 2567
61952 1287
61952 2311
61696 3591
61952 3335
62464 263
62464 519
63488 263
63488 519
62464 2055
63488 1031
62464 2307
62464 2309
62464 2310
62464 2563
62464 2565
62464 2566
63488 1283
63488 1285
63488 1286
63488 1539
63488 1541
63488 1542
62464 2823
63488 1799
775 0
248 0
