0 0 17
0 0 68
0 0 136
0 2 0
0 32 0
1 0 17
1 0 34
1 0 192
1 4 64
1 72 0
1 192 0
2 0 136
2 1 32
2 2 32
2 4 0
2 16 32
2 32 16
2 64 0
3 0 17
3 2 8
3 4 32
3 6 0
3 8 2
3 32 4
3 64 4
3 128 0
4 0 34
4 0 68
4 0 136
4 1 0
4 16 0
5 0 68
5 1 2
5 2 1
5 8 0
5 16 2
5 32 2
5 128 0
6 0 34
6 1 8
6 4 16
6 8 1
6 16 4
6 24 0
6 64 0
6 128 0
